{
    "data":
    {
  
            "total": 400,
            "per_page": 20,
            "current_page": 1,
            "last_page": 20,
            "first_page_url": "http://laravel.app?page=1&amout=20",
            "last_page_url": "http://laravel.app?page=4&amout=20",
            "next_page_url": "http://laravel.app?page=2&amout=20",
            "prev_page_url": null,
            "path": "http://laravel.app",
            "from": 1,
            "to": 20,
            "data": 
            [
                  {
                    "id": 1,
                    "dni": "39743646",
                    "names": "Wise Bernadette",
                    "surname": "Mason Suarez",
                    "gender": "F",
                    "type": "Otros",
                    "institutional_email": "bernadettesuarez@mazuda.com",
                    "photo": "http://placehold.it/32x32",
                    "code": "15200234",
                    "school_id":2,
                    "phone": "018825943",
                    "mobile": "994650631",
                    "personal_email": "bernadettesuarez@mazuda.com",
                    "address": "124 Miller Avenue, Sexton, Louisiana, 350",
                    "description": "Anim officia tempor in ullamco duis sit velit cillum sunt occaecat. Tempor excepteur proident elit eiusmod quis ipsum irure irure. Reprehenderit nisi duis quis nulla. Minim sunt sint laborum commodo Lorem sunt minim labore eiusmod laboris qui. Fugiat non pariatur excepteur quis eu sunt reprehenderit. Amet pariatur ut eiusmod consequat cillum sit.\r\n",
                    "created_at": "2014-12-22T12:42:59 +05:00",
                    "updated_at": "2019-12-29T01:38:03 +05:00"
                  },
                  {
                    "id": 2,
                    "dni": "36230110",
                    "names": "Terrie Katina",
                    "surname": "Fuller Knox",
                    "gender": "F",
                    "type": "Otros",
                    "institutional_email": "katinaknox@mazuda.com",
                    "photo": "http://placehold.it/32x32",
                    "code": "18200157",
                    "school_id":2,
                    "phone": "019065823",
                    "mobile": "990042629",
                    "personal_email": "katinaknox@mazuda.com",
                    "address": "432 Sheffield Avenue, Evergreen, Wisconsin, 8267",
                    "description": "Et occaecat proident adipisicing velit elit. Magna tempor occaecat do tempor eu. Non ipsum qui minim in mollit officia officia ullamco. Enim cupidatat reprehenderit deserunt elit amet cupidatat amet irure ad adipisicing magna ad. Dolore incididunt nulla nisi dolore duis. Commodo sunt do nisi sint cupidatat pariatur culpa cillum proident aliquip non ipsum. Nisi consequat sit ipsum duis voluptate laborum sint elit nulla commodo nostrud.\r\n",
                    "created_at": "2020-04-19T07:27:16 +05:00",
                    "updated_at": "2016-02-16T09:56:18 +05:00"
                  },
                  {
                    "id": 3,
                    "dni": "48969402",
                    "names": "Barber Fran",
                    "surname": "Trujillo Mcneil",
                    "gender": "F",
                    "type": "Pregado",
                    "institutional_email": "franmcneil@mazuda.com",
                    "photo": "http://placehold.it/32x32",
                    "code": "15200153",
                    "school_id":2,
                    "phone": "018045943",
                    "mobile": "981253131",
                    "personal_email": "franmcneil@mazuda.com",
                    "address": "129 Perry Terrace, Seymour, Connecticut, 4486",
                    "description": "Ex incididunt ipsum magna duis elit deserunt fugiat sunt reprehenderit. Laboris laborum commodo elit adipisicing minim pariatur amet mollit sint pariatur magna adipisicing consectetur. Do enim non laborum deserunt sunt ut ipsum consequat magna. Ea ut exercitation ex veniam est aliqua irure duis. Culpa dolore nostrud incididunt nostrud labore.\r\n",
                    "created_at": "2018-06-04T06:33:42 +05:00",
                    "updated_at": "2015-03-27T10:21:26 +05:00"
                  },
                  {
                    "id": 4,
                    "dni": "40997329",
                    "names": "Doyle Bobbi",
                    "surname": "Lindsay Matthews",
                    "gender": "F",
                    "type": "Docente",
                    "institutional_email": "bobbimatthews@mazuda.com",
                    "photo": "http://placehold.it/32x32",
                    "code": "14200294",
                    "school_id":2,
                    "phone": "018134562",
                    "mobile": "982647439",
                    "personal_email": "bobbimatthews@mazuda.com",
                    "address": "123 Newkirk Placez, Day, Federated States Of Micronesia, 4239",
                    "description": "Labore est duis proident laboris nostrud. Nostrud ea minim amet sint commodo labore ipsum voluptate ad incididunt. Tempor incididunt sint consectetur Lorem duis pariatur laboris cillum. Ad amet consectetur deserunt et enim.\r\n",
                    "created_at": "2017-07-05T09:45:24 +05:00",
                    "updated_at": "2016-04-11T02:43:47 +05:00"
                  },
                  {
                    "id": 5,
                    "dni": "98893693",
                    "names": "Patrick Kirsten",
                    "surname": "Bond Holt",
                    "gender": "F",
                    "type": "Otros",
                    "institutional_email": "kirstenholt@mazuda.com",
                    "photo": "http://placehold.it/32x32",
                    "code": "17200139",
                    "school_id":2,
                    "phone": "018814982",
                    "mobile": "993947437",
                    "personal_email": "kirstenholt@mazuda.com",
                    "address": "114 Canton Court, Chemung, South Carolina, 152",
                    "description": "Magna deserunt cillum consectetur officia eu ex elit cillum ad laborum nulla ut anim. Laborum officia culpa minim sunt quis incididunt ex id aliquip enim non enim. Dolore ut velit labore et enim anim voluptate labore ea. Ipsum ex occaecat nulla occaecat magna culpa do consectetur reprehenderit labore non consequat consequat. Cupidatat deserunt proident occaecat dolor est aliquip deserunt.\r\n",
                    "created_at": "2019-11-04T01:13:03 +05:00",
                    "updated_at": "2017-06-17T08:33:13 +05:00"
                  },
                  {
                    "id": 6,
                    "dni": "63771968",
                    "names": "Cara Becker",
                    "surname": "Donaldson Thomas",
                    "gender": "M",
                    "type": "Externo",
                    "institutional_email": "beckerthomas@mazuda.com",
                    "photo": "http://placehold.it/32x32",
                    "code": "17200224",
                    "school_id":2,
                    "phone": "018324223",
                    "mobile": "988942623",
                    "personal_email": "beckerthomas@mazuda.com",
                    "address": "518 Glenmore Avenue, Johnsonburg, Arizona, 6100",
                    "description": "Cillum proident minim commodo eiusmod laborum commodo ullamco. Ad commodo dolore aliqua Lorem nostrud veniam occaecat eu velit in. Ut consequat ad id eu est voluptate deserunt elit. Incididunt consequat quis adipisicing eiusmod Lorem ad ut. Anim aute quis dolor minim elit laboris elit mollit pariatur enim non excepteur dolore.\r\n",
                    "created_at": "2020-01-14T09:28:19 +05:00",
                    "updated_at": "2018-03-11T08:59:50 +05:00"
                  },
                  {
                    "id": 7,
                    "dni": "79383696",
                    "names": "Hammond Pope",
                    "surname": "Villarreal Avery",
                    "gender": "M",
                    "type": "Externo",
                    "institutional_email": "popeavery@mazuda.com",
                    "photo": "http://placehold.it/32x32",
                    "code": "20200180",
                    "school_id":2,
                    "phone": "019134882",
                    "mobile": "997545321",
                    "personal_email": "popeavery@mazuda.com",
                    "address": "233 Bridge Street, Jennings, American Samoa, 9357",
                    "description": "Ullamco adipisicing quis reprehenderit proident amet dolore duis culpa sunt. Ut laboris in proident aliqua duis officia enim dolor labore id. Et ea laborum cillum elit aute occaecat exercitation culpa. Irure occaecat do qui proident mollit veniam eiusmod. Dolore dolor ex in duis cillum ut nisi non ex ex incididunt ea cillum est.\r\n",
                    "created_at": "2014-02-04T07:18:35 +05:00",
                    "updated_at": "2016-02-04T07:15:31 +05:00"
                  },
                  {
                    "id": 8,
                    "dni": "41852406",
                    "names": "Ayers Dodson",
                    "surname": "Mcgowan Valdez",
                    "gender": "M",
                    "type": "Posgrado",
                    "institutional_email": "dodsonvaldez@mazuda.com",
                    "photo": "http://placehold.it/32x32",
                    "code": "19200259",
                    "school_id":2,
                    "phone": "019974173",
                    "mobile": "992940426",
                    "personal_email": "dodsonvaldez@mazuda.com",
                    "address": "438 Meadow Street, Strong, California, 6169",
                    "description": "Qui cupidatat magna sint eu et do minim. Esse non culpa pariatur proident. Elit veniam voluptate velit non deserunt adipisicing culpa eiusmod sunt adipisicing occaecat. Ex ex elit magna minim et aliqua deserunt exercitation ipsum nostrud exercitation irure. Anim mollit id anim pariatur commodo eu est nulla ullamco aliqua.\r\n",
                    "created_at": "2017-06-26T02:26:28 +05:00",
                    "updated_at": "2014-09-08T08:41:05 +05:00"
                  },
                  {
                    "id": 9,
                    "dni": "82101200",
                    "names": "Moran Melody",
                    "surname": "Miles Gonzales",
                    "gender": "F",
                    "type": "Pregado",
                    "institutional_email": "melodygonzales@mazuda.com",
                    "photo": "http://placehold.it/32x32",
                    "code": "19200172",
                    "school_id":2,
                    "phone": "018565572",
                    "mobile": "985452623",
                    "personal_email": "melodygonzales@mazuda.com",
                    "address": "851 Ira Court, Lavalette, Pennsylvania, 9373",
                    "description": "Dolor adipisicing labore aliquip ea occaecat mollit quis. Officia veniam mollit mollit fugiat aliqua minim veniam. Eu adipisicing qui sit sint mollit id velit sit aliquip qui non eu. Ad tempor et labore est excepteur do. Amet qui id eu veniam reprehenderit ut et deserunt officia.\r\n",
                    "created_at": "2016-11-20T06:51:54 +05:00",
                    "updated_at": "2019-09-29T01:13:48 +05:00"
                  },
                  {
                    "id": 10,
                    "dni": "26088946",
                    "names": "Joy Ruthie",
                    "surname": "Norton Quinn",
                    "gender": "F",
                    "type": "Pregado",
                    "institutional_email": "ruthiequinn@mazuda.com",
                    "photo": "http://placehold.it/32x32",
                    "code": "14200258",
                    "school_id":2,
                    "phone": "019954412",
                    "mobile": "998457529",
                    "personal_email": "ruthiequinn@mazuda.com",
                    "address": "651 Hudson Avenue, Kennedyville, Illinois, 4441",
                    "description": "Labore dolor qui occaecat quis commodo ut consectetur ea eiusmod. Adipisicing culpa irure mollit ad ullamco pariatur enim cillum tempor est in occaecat consectetur fugiat. Incididunt aute cupidatat consectetur ullamco cupidatat proident amet mollit adipisicing incididunt fugiat ex aliqua. Incididunt eiusmod esse duis ullamco sunt exercitation duis velit esse elit quis incididunt. Amet est eiusmod quis irure laborum consequat aute sint deserunt esse. Ex eu Lorem aliquip id culpa irure duis ipsum consectetur labore elit consequat exercitation. Lorem dolore aliquip anim officia commodo cillum laboris.\r\n",
                    "created_at": "2017-09-25T03:56:17 +05:00",
                    "updated_at": "2015-03-09T04:02:03 +05:00"
                  },
                  {
                    "id": 11,
                    "dni": "51885408",
                    "names": "Schultz Eliza",
                    "surname": "Morgan Kim",
                    "gender": "F",
                    "type": "Docente",
                    "institutional_email": "elizakim@mazuda.com",
                    "photo": "http://placehold.it/32x32",
                    "code": "16200297",
                    "school_id":2,
                    "phone": "019094883",
                    "mobile": "982741827",
                    "personal_email": "elizakim@mazuda.com",
                    "address": "682 Meserole Avenue, Lynn, Wyoming, 951",
                    "description": "Qui fugiat adipisicing magna pariatur nisi veniam magna irure amet elit sint nulla reprehenderit. Irure Lorem commodo excepteur culpa minim laboris. Eiusmod sunt laboris id sint exercitation aliquip incididunt mollit excepteur excepteur nisi.\r\n",
                    "created_at": "2018-12-25T12:58:49 +05:00",
                    "updated_at": "2015-10-21T05:21:18 +05:00"
                  },
                  {
                    "id": 12,
                    "dni": "58357189",
                    "names": "Chang Dianne",
                    "surname": "Osborne Huff",
                    "gender": "F",
                    "type": "Pregado",
                    "institutional_email": "diannehuff@mazuda.com",
                    "photo": "http://placehold.it/32x32",
                    "code": "14200263",
                    "school_id":2,
                    "phone": "019385792",
                    "mobile": "994442933",
                    "personal_email": "diannehuff@mazuda.com",
                    "address": "829 Eckford Street, Brewster, Nevada, 9258",
                    "description": "Consectetur dolor incididunt non Lorem aute. Lorem in cillum laboris cillum et voluptate incididunt exercitation incididunt. Sit ea voluptate ad culpa nostrud pariatur veniam est officia. Reprehenderit aute officia esse minim sunt laborum ad magna incididunt ad laboris sint enim. Laborum minim elit cupidatat sit. Magna voluptate sint cupidatat mollit excepteur est dolore.\r\n",
                    "created_at": "2014-12-25T03:58:14 +05:00",
                    "updated_at": "2016-10-10T03:45:46 +05:00"
                  },
                  {
                    "id": 13,
                    "dni": "67239878",
                    "names": "Mcfadden Holder",
                    "surname": "Dalton Bryant",
                    "gender": "M",
                    "type": "Otros",
                    "institutional_email": "holderbryant@mazuda.com",
                    "photo": "http://placehold.it/32x32",
                    "code": "19200229",
                    "school_id":2,
                    "phone": "018004833",
                    "mobile": "999147634",
                    "personal_email": "holderbryant@mazuda.com",
                    "address": "877 Brightwater Court, Tuttle, Georgia, 3198",
                    "description": "Reprehenderit id aliqua consectetur nisi dolor anim. Proident adipisicing enim excepteur amet officia commodo ad anim nisi duis veniam sit veniam laborum. Quis aute in deserunt esse aute dolor. Cillum esse esse ex elit consequat culpa. Reprehenderit anim et ex dolore voluptate veniam officia sunt deserunt Lorem ut labore commodo cillum.\r\n",
                    "created_at": "2014-04-04T03:04:39 +05:00",
                    "updated_at": "2018-01-06T02:04:04 +05:00"
                  },
                  {
                    "id": 14,
                    "dni": "37895524",
                    "names": "Alison Ethel",
                    "surname": "Alston Elliott",
                    "gender": "F",
                    "type": "Docente",
                    "institutional_email": "ethelelliott@mazuda.com",
                    "photo": "http://placehold.it/32x32",
                    "code": "19200192",
                    "school_id":2,
                    "phone": "018494472",
                    "mobile": "983859536",
                    "personal_email": "ethelelliott@mazuda.com",
                    "address": "290 Havens Place, Woodruff, Arkansas, 7711",
                    "description": "Excepteur irure id ex magna sit incididunt anim. Est veniam laborum do consequat consectetur veniam tempor quis sit ea. Sit elit occaecat duis sunt aliquip. In ut commodo dolor consectetur non duis veniam non.\r\n",
                    "created_at": "2018-09-07T11:40:05 +05:00",
                    "updated_at": "2016-12-08T12:29:07 +05:00"
                  },
                  {
                    "id": 15,
                    "dni": "86307899",
                    "names": "Garcia Tamera",
                    "surname": "Snow Butler",
                    "gender": "F",
                    "type": "Docente",
                    "institutional_email": "tamerabutler@mazuda.com",
                    "photo": "http://placehold.it/32x32",
                    "code": "18200209",
                    "school_id": 1,
                    "phone": "018784782",
                    "mobile": "981444225",
                    "personal_email": "tamerabutler@mazuda.com",
                    "address": "205 Fenimore Street, Tryon, Delaware, 183",
                    "description": "Lorem est sit culpa sunt nostrud ex sit. Velit ea minim minim elit. Esse laboris pariatur labore aliquip pariatur ullamco sint esse est ex consectetur sit nostrud est.\r\n",
                    "created_at": "2014-01-14T05:30:32 +05:00",
                    "updated_at": "2018-08-01T05:29:44 +05:00"
                  },
                  {
                    "id": 16,
                    "dni": "53497639",
                    "names": "Kane Hayden",
                    "surname": "Kemp Fry",
                    "gender": "M",
                    "type": "Docente",
                    "institutional_email": "haydenfry@mazuda.com",
                    "photo": "http://placehold.it/32x32",
                    "code": "14200140",
                    "school_id":2,
                    "phone": "018504852",
                    "mobile": "994654622",
                    "personal_email": "haydenfry@mazuda.com",
                    "address": "702 Front Street, Disautel, Minnesota, 7891",
                    "description": "Reprehenderit est culpa adipisicing ipsum est. Et mollit do reprehenderit enim consectetur voluptate labore eiusmod commodo laborum. Cupidatat tempor sint elit commodo non voluptate non laborum occaecat aute consectetur amet proident ea. Mollit pariatur pariatur ex nisi ad elit qui eu dolor cupidatat minim cupidatat non dolore. Nulla duis incididunt nulla Lorem id occaecat esse do eiusmod ea. Elit mollit tempor consectetur culpa consectetur non qui velit deserunt aute id do. Lorem sit nulla enim tempor magna tempor est proident amet proident culpa.\r\n",
                    "created_at": "2017-11-25T01:23:16 +05:00",
                    "updated_at": "2019-11-21T02:34:37 +05:00"
                  },
                  {
                    "id": 17,
                    "dni": "29358626",
                    "names": "Nell Rivers",
                    "surname": "Logan Mcmillan",
                    "gender": "M",
                    "type": "Docente",
                    "institutional_email": "riversmcmillan@mazuda.com",
                    "photo": "http://placehold.it/32x32",
                    "code": "19200248",
                    "school_id":2,
                    "phone": "018125713",
                    "mobile": "999940138",
                    "personal_email": "riversmcmillan@mazuda.com",
                    "address": "132 Dinsmore Place, Deputy, Texas, 6204",
                    "description": "Eiusmod exercitation Lorem occaecat fugiat ut eiusmod cupidatat sint labore dolor id. Esse commodo adipisicing consequat minim fugiat aliquip ea. Anim esse esse esse sit consequat adipisicing deserunt reprehenderit id sint. Velit qui Lorem ex aliquip veniam deserunt dolore et est dolore. Ut quis culpa do non deserunt labore excepteur duis proident ut irure laboris.\r\n",
                    "created_at": "2019-09-10T10:41:34 +05:00",
                    "updated_at": "2016-08-16T05:41:29 +05:00"
                  },
                  {
                    "id": 18,
                    "dni": "43388383",
                    "names": "Rivera Atkinson",
                    "surname": "Ortiz Gamble",
                    "gender": "M",
                    "type": "Docente",
                    "institutional_email": "atkinsongamble@mazuda.com",
                    "photo": "http://placehold.it/32x32",
                    "code": "15200190",
                    "school_id":2,
                    "phone": "019135853",
                    "mobile": "987748534",
                    "personal_email": "atkinsongamble@mazuda.com",
                    "address": "979 Whitney Avenue, Delco, Iowa, 810",
                    "description": "Sint aliqua pariatur esse nisi fugiat deserunt voluptate exercitation. Laborum sit aliqua incididunt minim ullamco aute ullamco. Aliquip mollit sunt ullamco exercitation adipisicing exercitation cupidatat magna minim et anim nostrud. Aliquip velit mollit reprehenderit nostrud deserunt exercitation veniam cupidatat enim amet laboris esse qui laborum. Lorem ipsum ipsum ipsum reprehenderit cillum duis culpa. Lorem eu laborum reprehenderit irure eiusmod elit. Reprehenderit dolore id id culpa anim sunt fugiat excepteur id.\r\n",
                    "created_at": "2017-04-11T09:46:51 +05:00",
                    "updated_at": "2017-08-05T10:47:43 +05:00"
                  },
                  {
                    "id": 19,
                    "dni": "82865974",
                    "names": "Larsen Compton",
                    "surname": "Mccarthy Luna",
                    "gender": "M",
                    "type": "Pregado",
                    "institutional_email": "comptonluna@mazuda.com",
                    "photo": "http://placehold.it/32x32",
                    "code": "16200124",
                    "school_id":2,
                    "phone": "018475933",
                    "mobile": "995547125",
                    "personal_email": "comptonluna@mazuda.com",
                    "address": "130 Benson Avenue, Kraemer, Idaho, 3347",
                    "description": "Labore ipsum duis adipisicing laboris veniam pariatur. Lorem sunt enim enim do. Laboris tempor sint proident voluptate sit ad exercitation ea irure ut excepteur. Tempor consectetur nulla cillum ipsum et est sint est. Sint enim irure adipisicing voluptate voluptate non consequat labore est do deserunt anim dolor. Proident dolore laboris exercitation fugiat consequat ut et amet id. Deserunt ipsum sint eiusmod irure veniam qui consequat.\r\n",
                    "created_at": "2016-02-08T01:15:28 +05:00",
                    "updated_at": "2017-01-07T10:59:57 +05:00"
                  },
                  {
                    "id": 20,
                    "dni": "18435814",
                    "names": "Bird Jacklyn",
                    "surname": "Ramirez Hammond",
                    "gender": "F",
                    "type": "Pregado",
                    "institutional_email": "jacklynhammond@mazuda.com",
                    "photo": "http://placehold.it/32x32",
                    "code": "19200222",
                    "school_id":5,
                    "phone": "019625132",
                    "mobile": "986649237",
                    "personal_email": "jacklynhammond@mazuda.com",
                    "address": "123 Beayer Place, Harold, Kentucky, 6160",
                    "description": "Nostrud est mollit eu anim nisi commodo ipsum. Consequat ipsum labore consequat id laborum magna do ut dolor aliquip. Aliquip commodo nisi nostrud labore non veniam duis tempor incididunt in nostrud. Id duis dolore irure amet fugiat. Consectetur fugiat irure veniam fugiat tempor culpa sunt reprehenderit eiusmod elit elit magna consequat ullamco.\r\n",
                    "created_at": "2016-03-28T09:59:44 +05:00",
                    "updated_at": "2016-05-02T05:12:21 +05:00"
                  }
                    
            ]
    },

    "code": 200,

    "type": "A002"
}