{
    "data":
    {
    
          "total": 45,
          "per_page": 10,
          "current_page": 1,
          "last_page": 5,
          "first_page_url": "http://laravel.app?page=1",
          "last_page_url": "http://laravel.app?page=4",
          "next_page_url": "http://laravel.app?page=2",
          "prev_page_url": null,
          "path": "http://laravel.app",
          "from": 1,
          "to": 10,
          "data":
          [
                {
                  "id": 1,
                  "dni": "42817365",
                  "code": "14200213",
                  "names": "Lorna Duncan",
                  "surname": "Chavez Fuller",
                  "profile_id": 2,
                  "date_of_birth": "2015-11-10",
                  "gender": "M",
                  "phone": "(816) 410-2184",
                  "address": "245 Wyckoff Street, Sanborn, Georgia, 2932",
                  "email": "duncanfuller@signity..com",
                  "photo" : "storageamephoto.jpg",
                  "created_at": "2016-02-14T05:16:21 +05:00",
                  "updated_at": "2015-08-08T02:12:13 +05:00"
                },
                {
                  "id": 2,
                  "dni": "6851602",
                  "code": "18200268",
                  "names": "Ware Ewing",
                  "surname": "Mcneil Ware",
                  "profile_id": 1,
                  "date_of_birth": "2015-07-22",
                  "gender": "M",
                  "phone": "(985) 581-2121",
                  "address": "327 Juliana Place, Disautel, Northern Mariana Islands, 656",
                  "email": "ewingware@signity..com",
                  "photo" : "storageamephoto.jpg",
                  "created_at": "2015-07-21T05:10:29 +05:00",
                  "updated_at": "2014-01-18T07:14:45 +05:00"
                },
                {
                  "id": 3,
                  "dni": "98002271",
                  "code": "15200281",
                  "names": "Mathews Anthony",
                  "surname": "Yates Romero",
                  "profile_id": 3,
                  "date_of_birth": "2017-10-24",
                  "gender": "F",
                  "phone": "(866) 553-2783",
                  "address": "690 Shale Street, Catharine, Montana, 3409",
                  "email": "anthonyromero@signity..com",
                  "photo" : "storageamephoto.jpg",
                  "created_at": "2014-04-15T04:54:05 +05:00",
                  "updated_at": "2017-05-14T11:44:26 +05:00"
                },
                {
                  "id": 4,
                  "dni": "82392690",
                  "code": "16200187",
                  "names": "Debbie Jensen",
                  "surname": "Sparks Frye",
                  "profile_id": 2,
                  "date_of_birth": "2015-09-16",
                  "gender": "F",
                  "phone": "(902) 542-2855",
                  "address": "570 Howard Alley, Dixie, Michigan, 2052",
                  "email": "jensenfrye@signity..com",
                  "photo" : "storageamephoto.jpg",
                  "created_at": "2020-01-05T04:45:35 +05:00",
                  "updated_at": "2016-12-10T07:22:29 +05:00"
                },
                {
                  "id": 5,
                  "dni": "70113802",
                  "code": "19200207",
                  "names": "Jerry Lester",
                  "surname": "Kim Suarez",
                  "profile_id": 3,
                  "date_of_birth": "2015-07-17",
                  "gender": "F",
                  "phone": "(818) 442-2209",
                  "address": "448 Fleet Street, Barronett, Colorado, 9398",
                  "email": "lestersuarez@signity..com",
                  "photo" : "storageamephoto.jpg",
                  "created_at": "2018-08-31T05:59:52 +05:00",
                  "updated_at": "2015-10-24T11:42:16 +05:00"
                },
                {
                  "id": 6,
                  "dni": "5931242",
                  "code": "20200138",
                  "names": "Vilma Elaine",
                  "surname": "Patel Lawrence",
                  "profile_id": 1,
                  "date_of_birth": "2020-01-18",
                  "gender": "F",
                  "phone": "(858) 432-2371",
                  "address": "515 Stuart Street, Sena, Vermont, 6523",
                  "email": "elainelawrence@signity..com",
                  "photo" : "storageamephoto.jpg",
                  "created_at": "2014-04-16T08:49:34 +05:00",
                  "updated_at": "2015-05-30T04:21:01 +05:00"
                },
                {
                  "id": 7,
                  "dni": "93627550",
                  "code": "15200166",
                  "names": "Deana Johns",
                  "surname": "Sutton Gray",
                  "profile_id": 2,
                  "date_of_birth": "2015-02-06",
                  "gender": "M",
                  "phone": "(933) 456-2070",
                  "address": "275 Croton Loop, Allamuchy, Missouri, 2527",
                  "email": "johnsgray@signity..com",
                  "photo" : "storageamephoto.jpg",
                  "created_at": "2018-11-26T05:41:51 +05:00",
                  "updated_at": "2017-06-03T08:05:13 +05:00"
                },
                {
                  "id": 8,
                  "dni": "19670912",
                  "code": "19200171",
                  "names": "Tracie Amalia",
                  "surname": "Marsh Guerrero",
                  "profile_id": 2,
                  "date_of_birth": "2014-09-30",
                  "gender": "F",
                  "phone": "(865) 482-3986",
                  "address": "660 Moffat Street, Trinway, Illinois, 2350",
                  "email": "amaliaguerrero@signity..com",
                  "photo" : "storageamephoto.jpg",
                  "created_at": "2015-12-18T02:17:54 +05:00",
                  "updated_at": "2018-10-18T11:46:19 +05:00"
                },
                {
                  "id": 9,
                  "dni": "58229277",
                  "code": "18200252",
                  "names": "Gonzales Harris",
                  "surname": "Whitaker Charles",
                  "profile_id": 2,
                  "date_of_birth": "2015-06-22",
                  "gender": "M",
                  "phone": "(925) 533-3968",
                  "address": "608 Beard Street, Gambrills, Virginia, 7265",
                  "email": "harrischarles@signity..com",
                  "photo" : "storageamephoto.jpg",
                  "created_at": "2019-08-21T06:07:26 +05:00",
                  "updated_at": "2014-03-14T04:12:24 +05:00"
                },
                {
                  "id": 10,
                  "dni": "85152678",
                  "code": "17200230",
                  "names": "Gwendolyn Letha",
                  "surname": "Mann Owens",
                  "profile_id": 1,
                  "date_of_birth": "2015-02-21",
                  "gender": "F",
                  "phone": "(857) 589-2528",
                  "address": "812 Hinckley Place, Reno, Florida, 6376",
                  "email": "lethaowens@signity..com",
                  "photo" : "storageamephoto.jpg",
                  "created_at": "2016-08-14T02:48:14 +05:00",
                  "updated_at": "2016-07-25T07:22:25 +05:00"
                }
          ]
    },
    "code": 200,

    "type": "A002"
}